…
``` r
babynames %>% 
  mutate(percent = round(100*prop, 2))
```

    # A tibble: 1,924,665 × 6
        year sex   name          n   prop percent
       <dbl> <chr> <chr>     <int>  <dbl>   <dbl>
     1  1880 F     Mary       7065 0.0724    7.24
     2  1880 F     Anna       2604 0.0267    2.67
     3  1880 F     Emma       2003 0.0205    2.05
     4  1880 F     Elizabeth  1939 0.0199    1.99
     5  1880 F     Minnie     1746 0.0179    1.79
     6  1880 F     Margaret   1578 0.0162    1.62
     7  1880 F     Ida        1472 0.0151    1.51
     8  1880 F     Alice      1414 0.0145    1.45
     9  1880 F     Bertha     1320 0.0135    1.35
    10  1880 F     Sarah      1288 0.0132    1.32
    # … with 1,924,655 more rows
…
*(Hint: Be sure to remove each `_` before running the code)*

``` r
babynames %>% 
  group_by(year, sex) %>% 
  mutate(rank = min_rank(desc(prop))) %>% 
  group_by(name, sex) %>% 
  summarise(avg_rank = mean(rank)) %>% 
  arrange(avg_rank)
```

    `summarise()` has grouped output by 'name'. You can override using the `.groups`
    argument.

    # A tibble: 107,973 × 3
    # Groups:   name [97,310]
       name      sex   avg_rank
       <chr>     <chr>    <dbl>
     1 James     M         5.45
     2 William   M         6.36
     3 John      M         6.37
     4 Joseph    M        10.3 
     5 Robert    M        11.9 
     6 Elizabeth F        12.1 
     7 David     M        14.7 
     8 Thomas    M        18.1 
     9 Mary      F        19.4 
    10 Charles   M        19.7 
    # … with 107,963 more rows
…
